loss(1m) - fresh Nuisanc Mid 
win(0.900k) - from 1 win Halal-Money
win(0.900k) - from 1 win Halal-Money
win(0.900k) - from 2 wins Halal-Money
loss(1m) - fresh Soul Bug
loss(1m) - fresh YMY
win(0.7m) - from 1 win[win,win,loss] -Soul Bug 
win(3.3) - from 1 win[win,win,win,loss] -ymy
loss(1m) - fresh  -ajws
win(1.6) - fresh[win,win,win,loss] -twamp
loss(1m) - from 1 win -Soul Bug 
win(0.900k) - from 1 win[win] -ajws
win(3.610) - win[win,win, didn't accept my trade(loss)] -twamp
loss(1m) - fresh -euro
win(0.900) - from 1 win[win,closed] -ymy
loss(1m) - win[win,loss]-paco
loss(1m) - win[loss]  -ajws
loss(1) - fresh[win,loss] -moo
win(1,61m) - win[win,win,loss]-paco
profit[6.5m]